{
    "site": [
        {
            "id": 12,
            "siteName": "芝麻金融官网"
        },
        {
            "id": 10,
            "siteName": "芝麻P2P"
        }
    ],

    "transname": [
        {
            "siteId": 3,
            "transId": 4,
            "transTargetName": "目标1：测试名称",
            "transTargetUrl": "http://172.17.106.108/tctj/js/50xgbk.html"
        },
        {
            "siteId": 3,
            "transId": 5,
            "transTargetName": "目标2：目标名称",
            "transTargetUrl": "http://172.17.106.108/tctj/js/test2222.html"
        }
    ],

    "transform": {
        "transCount": 43700,
        "completePercent": 54.54,
        "giveupPercent": 23.42,
        "transValue": 343,
        "stepId": 2,
        "pathId": 2
    },

    "sourcetype": [
        {
            "text": "全部",
            "value": "all"
        },
        {
            "text": "直接访问",
            "value": 1
        },
        {
            "text": "自然搜索",
            "value": 2
        }
    ],

    "sAreaId": [
        {
            "text": "北京",
            "value": "beijing"
        },
        {
            "text": "天津",
            "value": "tianjin"
        },
        {
            "text": "四川",
            "value": "sichuan"
        }
    ],
    "siteId": 10,
    "transId": 5,
    "beginTime": 1439308800000,
    "endTime": 1441987200000,
    "timeType": "day"
}
